{
    "emails": [
        {
            "id": 123,
            "userId": 6,
            "folderId": 4,
            "messageId": null,
            "threadId": null,
            "fromAddress": "",
            "fromName": "",
            "toAddress": "",
            "ccAddress": "",
            "bccAddress": "",
            "subject": "",
            "body": "<p>yyy</p>",
            "attachments": null,
            "isRead": 1,
            "isStarred": 0,
            "isDraft": 1,
            "isActiveDraft": 0,
            "priority": "normal",
            "sentAt": null,
            "receivedAt": null,
            "createdAt": "2025-07-08T21:46:06.000Z",
            "updatedAt": "2025-07-08T21:49:10.000Z",
            "tags": "[]"
        },
        {
            "id": 122,
            "userId": 6,
            "folderId": 4,
            "messageId": null,
            "threadId": null,
            "fromAddress": "",
            "fromName": "",
            "toAddress": "",
            "ccAddress": "",
            "bccAddress": "",
            "subject": "",
            "body": "<p>rrr</p>",
            "attachments": null,
            "isRead": 1,
            "isStarred": 0,
            "isDraft": 1,
            "isActiveDraft": 0,
            "priority": "normal",
            "sentAt": null,
            "receivedAt": null,
            "createdAt": "2025-07-08T21:45:23.000Z",
            "updatedAt": "2025-07-08T21:55:20.000Z",
            "tags": "[]"
        },
        {
            "id": 121,
            "userId": 6,
            "folderId": 4,
            "messageId": null,
            "threadId": null,
            "fromAddress": "",
            "fromName": "",
            "toAddress": "asd@asd.com",
            "ccAddress": "",
            "bccAddress": "",
            "subject": "asd",
            "body": "aa",
            "attachments": null,
            "isRead": 0,
            "isStarred": 0,
            "isDraft": 1,
            "isActiveDraft": 0,
            "priority": "normal",
            "sentAt": null,
            "receivedAt": null,
            "createdAt": "2025-07-08T21:24:17.000Z",
            "updatedAt": "2025-07-08T21:45:23.000Z",
            "tags": "[]"
        },
        {
            "id": 119,
            "userId": 6,
            "folderId": 4,
            "messageId": null,
            "threadId": null,
            "fromAddress": "",
            "fromName": "",
            "toAddress": "",
            "ccAddress": "",
            "bccAddress": "",
            "subject": "",
            "body": "xx",
            "attachments": null,
            "isRead": 0,
            "isStarred": 0,
            "isDraft": 1,
            "isActiveDraft": 0,
            "priority": "normal",
            "sentAt": null,
            "receivedAt": null,
            "createdAt": "2025-07-08T21:23:55.000Z",
            "updatedAt": "2025-07-08T21:24:04.000Z",
            "tags": "[]"
        },
        {
            "id": 118,
            "userId": 6,
            "folderId": 4,
            "messageId": null,
            "threadId": null,
            "fromAddress": "",
            "fromName": null,
            "toAddress": "U2FsdGVkX1/DL+JVGK0Ya6KihIFaCPxDrOQXO7ClY5A=",
            "ccAddress": null,
            "bccAddress": null,
            "subject": "U2FsdGVkX18EWS2pQhZfxklRdyugk1d8JyI26LpIQdM=",
            "body": "U2FsdGVkX1+3Z3ttpRPPTAXa1Q3ZLb7i7MNVq6CVvxk=",
            "attachments": null,
            "isRead": 0,
            "isStarred": 0,
            "isDraft": 1,
            "isActiveDraft": 0,
            "priority": "normal",
            "sentAt": null,
            "receivedAt": null,
            "createdAt": "2025-07-08T21:11:46.000Z",
            "updatedAt": "2025-07-08T21:23:55.000Z",
            "tags": "[]"
        }
    ],
    "totalCount": 72,
    "hasMore": true,
    "currentPage": 12,
    "totalPages": 15
}